<svg xmlns="http://www.w3.org/2000/svg" width="10.324" height="20.648" viewBox="0 0 10.324 20.648">
  <g id="btm_previous" transform="translate(0.707 1.207)">
    <path id="路径_67" data-name="路径 67" d="M485.2,950h-3.255l-5.862,5.862L470.222,950h-3.255l9.117,9.117Z" transform="translate(959.117 -466.967) rotate(90)" fill="none" stroke="#989898" stroke-width="1"/>
  </g>
</svg>
