<svg id="icom_date" xmlns="http://www.w3.org/2000/svg" width="22.529" height="19.999" viewBox="0 0 22.529 19.999">
  <g id="组_1027" data-name="组 1027" transform="translate(-561.984 -553.467)">
    <path id="路径_251" data-name="路径 251" d="M583.513,573.466H562.984a1,1,0,0,1-1-1V556.134a1,1,0,0,1,1-1h20.529a1,1,0,0,1,1,1v16.332a1,1,0,0,1-1,1Zm-19.529-2h18.529V557.134H563.984v14.332Z" fill="#4f453c"/>
  </g>
  <g id="组_1028" data-name="组 1028" transform="translate(-561.984 -553.467)">
    <path id="路径_252" data-name="路径 252" d="M579.679,558.8a1,1,0,0,1-1-1v-3.333a1,1,0,0,1,2,0V557.8a1,1,0,0,1-1,1Z" fill="#4f453c"/>
  </g>
  <g id="组_1029" data-name="组 1029" transform="translate(-561.984 -553.467)">
    <path id="路径_253" data-name="路径 253" d="M566.929,558.8a1,1,0,0,1-1-1v-3.333a1,1,0,0,1,2,0V557.8a1,1,0,0,1-1,1Z" fill="#4f453c"/>
  </g>
  <g id="组_1030" data-name="组 1030" transform="translate(-561.984 -553.467)">
    <path id="路径_254" data-name="路径 254" d="M583.457,562.036H563.125a.5.5,0,0,1,0-1h20.332a.5.5,0,0,1,0,1Z" fill="#4f453c"/>
  </g>
  <path id="路径_255" data-name="路径 255" d="M567.662,564.066h-1.939v1.94h1.939v-1.94Z" transform="translate(-561.984 -553.467)" fill="#4f453c"/>
  <path id="路径_256" data-name="路径 256" d="M571.019,564.066H569.08v1.94h1.939v-1.94Z" transform="translate(-561.984 -553.467)" fill="#4f453c"/>
  <path id="路径_257" data-name="路径 257" d="M574.378,564.066h-1.941v1.94h1.941v-1.94Z" transform="translate(-561.984 -553.467)" fill="#4f453c"/>
  <path id="路径_258" data-name="路径 258" d="M577.736,564.066h-1.941v1.94h1.941v-1.94Z" transform="translate(-561.984 -553.467)" fill="#4f453c"/>
  <path id="路径_259" data-name="路径 259" d="M581.092,564.066h-1.938v1.94h1.938v-1.94Z" transform="translate(-561.984 -553.467)" fill="#4f453c"/>
  <path id="路径_260" data-name="路径 260" d="M567.662,567.182h-1.939v1.94h1.939v-1.94Z" transform="translate(-561.984 -553.467)" fill="#4f453c"/>
  <path id="路径_261" data-name="路径 261" d="M571.019,567.182H569.08v1.94h1.939v-1.94Z" transform="translate(-561.984 -553.467)" fill="#4f453c"/>
  <path id="路径_262" data-name="路径 262" d="M574.378,567.182h-1.941v1.94h1.941v-1.94Z" transform="translate(-561.984 -553.467)" fill="#4f453c"/>
  <path id="路径_263" data-name="路径 263" d="M577.736,567.182h-1.941v1.94h1.941v-1.94Z" transform="translate(-561.984 -553.467)" fill="#4f453c"/>
  <path id="路径_264" data-name="路径 264" d="M581.092,567.182h-1.938v1.94h1.938v-1.94Z" transform="translate(-561.984 -553.467)" fill="#4f453c"/>
</svg>
